miRNA	IsomiR
hsa-let-7a-5p	GAGGUAGUAGGUUGUAUAGUU
hsa-let-7a-5p	GAGGUAGUAGGUUGUAUAGUU
hsa-let-7a-5p	GGUAGUAGGUUGUAUAGUU
hsa-let-7a-5p	GGUAGUAGGUUGUAUAGUU
hsa-let-7a-5p	GGUAGUAGGUUGUAUAGUU
hsa-let-7a-5p	UGAGGUAGUAGGUUGUAUAGU
hsa-let-7a-5p	UGAGGUAGUAGGUUGUAUAGU
hsa-let-7a-5p	UGAGGUAGUAGGUUGUAUAGU
hsa-let-7a-5p	UGAGGUAGUAGGUUGUAUAGUU
hsa-let-7a-5p	UGAGGUAGUAGGUUGUAUAGUU
hsa-let-7a-5p	UGAGGUAGUAGGUUGUAUAGUUU
hsa-let-7b-5p	UGAGGUAGUAGGUUGUGUGG
hsa-let-7b-5p	UGAGGUAGUAGGUUGUGUGGU
hsa-let-7b-5p	UGAGGUAGUAGGUUGUGUGGUU
hsa-let-7b-5p	UGAGGUAGUAGGUUGUGUGGUUU
hsa-let-7c-5p	GAGGUAGUAGGUUGUAUGGUU
hsa-let-7c-5p	GAGGUAGUAGGUUGUAUGGUU
hsa-let-7c-5p	UGAGGUAGUAGGUUGUAUGG
hsa-let-7c-5p	UGAGGUAGUAGGUUGUAUGG
hsa-let-7c-5p	UGAGGUAGUAGGUUGUAUGGU
hsa-let-7c-5p	UGAGGUAGUAGGUUGUAUGGU
hsa-let-7c-5p	UGAGGUAGUAGGUUGUAUGGUU
hsa-let-7c-5p	UGAGGUAGUAGGUUGUAUGGUU
hsa-let-7d-3p	CUAUACGACCUGCUGCCUUUCU
hsa-let-7d-5p	AGAGGUAGUAGGUUGCAUAGU
hsa-let-7d-5p	AGAGGUAGUAGGUUGCAUAGUU
hsa-let-7e-5p	UGAGGUAGGAGGUUGUAUAGU
hsa-let-7e-5p	UGAGGUAGGAGGUUGUAUAGU
hsa-let-7e-5p	UGAGGUAGGAGGUUGUAUAGUU
hsa-let-7e-5p	UGAGGUAGGAGGUUGUAUAGUU
hsa-let-7f-5p	UGAGGUAGUAGAUUGUAUAGGU
hsa-let-7f-5p	UGAGGUAGUAGAUUGUAUAGUUU
hsa-let-7g-5p	UGAGGUAGUAGUUUGUACAGU
hsa-let-7g-5p	UGAGGUAGUAGUUUGUACAGUU
hsa-let-7g-5p	UGAGGUAGUAGUUUGUACAGUUA
hsa-let-7i-5p	UGAGGUAGUAGUUUGUGCUGU
hsa-let-7i-5p	UGAGGUAGUAGUUUGUGCUGUU
hsa-miR-100-5p	AACCCGUAGAUCCGAACUUGU
hsa-miR-100-5p	AACCCGUAGAUCCGAACUUGUG
hsa-miR-100-5p	AACCCGUAGAUCCGAACUUGUGA
hsa-miR-100-5p	AACCCGUAGAUCCGAACUUGUGU
hsa-miR-100-5p	ACCCGUAGAUCCGAACUUGU
hsa-miR-100-5p	ACCCGUAGAUCCGAACUUGUG
hsa-miR-100-5p	ACCCGUAGAUCCGAACUUGUGA
hsa-miR-100-5p	CCCGUAGAUCCGAACUUGUG
hsa-miR-101-3p	UACAGUACUGUGAUAACUGAAGA
hsa-miR-103a-3p	AGCAGCAUUGUACAGGGCUAUG
hsa-miR-103a-3p	AGCAGCAUUGUACAGGGCUAUG
hsa-miR-106b-3p	CCGCACUGUGGGUACUUGCU
hsa-miR-106b-3p	CCGCACUGUGGGUACUUGCUG
hsa-miR-106b-3p	CCGCACUGUGGGUACUUGCUGCA
hsa-miR-106b-5p	UAAAGUGCUGACAGUGCAGAUA
hsa-miR-107	AGCAGCAUUGUACAGGGCUAU
hsa-miR-107	AGCAGCAUUGUACAGGGCUAUC
hsa-miR-107	AGCAGCAUUGUACAGGGCUAUC
hsa-miR-10a-5p	ACCCUGUAGAUCCGAAUUUGU
hsa-miR-10a-5p	ACCCUGUAGAUCCGAAUUUGUG
hsa-miR-10a-5p	ACCCUGUAGAUCCGAAUUUGUGA
hsa-miR-10a-5p	UACCCUGUAGAUCCGAAUUUGU
hsa-miR-10a-5p	UACCCUGUAGAUCCGAAUUUGUG
hsa-miR-10a-5p	UACCCUGUAGAUCCGAAUUUGUGA
hsa-miR-125a-5p	UCCCUGAGACCCUUUAACCUGUG
hsa-miR-125b-2-3p	ACAAGUCAGGCUCUUGGGACC
hsa-miR-125b-2-3p	ACAAGUCAGGCUCUUGGGACCU
hsa-miR-125b-2-3p	UCACAAGUCAGGCUCUUGGGAC
hsa-miR-1292-5p	UGGGAACGGGUUCCGGCAGACG
hsa-miR-1307-5p	UCGACCGGACCUCGACCGGCU
hsa-miR-130b-5p	ACUCUUUCCCUGUUGCACUACU
hsa-miR-139-3p	GGAGACGCGGCCCUGUUGGAGU
hsa-miR-139-3p	UGGAGACGCGGCCCUGUUGGA
hsa-miR-139-3p	UGGAGACGCGGCCCUGUUGGAA
hsa-miR-139-3p	UGGAGACGCGGCCCUGUUGGAG
hsa-miR-139-3p	UGGAGACGCGGCCCUGUUGGAGU
hsa-miR-139-5p	UCUACAGUGCACGUGUCUCCAGU
hsa-miR-140-3p	ACCACAGGGUAGAACCACGG
hsa-miR-140-3p	ACCACAGGGUAGAACCACGGA
hsa-miR-140-3p	ACCACAGGGUAGAACCACGGAC
hsa-miR-140-3p	ACCACAGGGUAGAACCACGGACA
hsa-miR-140-3p	CCACAGGGUAGAACCACGGA
hsa-miR-140-3p	CCACAGGGUAGAACCACGGAC
hsa-miR-140-3p	UACCACAGGGUAGAACCACGG
hsa-miR-140-3p	UACCACAGGGUAGAACCACGGA
hsa-miR-140-3p	UACCACAGGGUAGAACCACGGAC
hsa-miR-140-3p	UACCACAGGGUAGAACCACGGACA
hsa-miR-148b-3p	UCAGUGCAUCACAGAACUUUGU
hsa-miR-151a-3p	CUAGACUGAAGCUCCUUGAG
hsa-miR-151a-3p	CUAGACUGAAGCUCCUUGAGAA
hsa-miR-151a-3p	CUAGACUGAAGCUCCUUGAGGA
hsa-miR-151a-3p	CUAGACUGAAGCUCCUUGAGGAA
hsa-miR-151a-3p	CUAGACUGAAGCUCCUUGAGGAAA
hsa-miR-151a-3p	CUAGACUGAAGCUCCUUGAGGAAC
hsa-miR-151a-3p	CUAGACUGAAGCUCCUUGAGGAAU
hsa-miR-151a-3p	CUAGACUGAAGCUCCUUGAGGAU
hsa-miR-151a-3p	CUAGACUGAAGCUCCUUGAGGAUA
hsa-miR-151a-3p	CUAGACUGAAGCUCCUUGAGGG
hsa-miR-151a-3p	CUAGACUGAAGCUCCUUGAGGU
hsa-miR-151a-3p	CUAGACUGAAGCUCCUUGAGUA
hsa-miR-151a-3p	GACUGAAGCUCCUUGAGGA
hsa-miR-151a-3p	UACUAGACUGAAGCUCCUUGA
hsa-miR-151a-3p	UACUAGACUGAAGCUCCUUGAG
hsa-miR-151a-3p	UACUAGACUGAAGCUCCUUGAGA
hsa-miR-151a-3p	UACUAGACUGAAGCUCCUUGAGG
hsa-miR-151a-3p	UACUAGACUGAAGCUCCUUGAGGU
hsa-miR-151a-3p	UACUAGACUGAAGCUCCUUGAGU
hsa-miR-151a-3p	UAGACUGAAGCUCCUUGAGGA
hsa-miR-151a-3p	UAGACUGAAGCUCCUUGAGGAA
hsa-miR-151a-5p	UCGAGGAGCUCACAGUCUAGU
hsa-miR-15a-5p	UAGCAGCACAUAAUGGUUUGUG
hsa-miR-15b-5p	UAGCAGCACAUCAUGGUUUACA
hsa-miR-181a-2-3p	ACCACUGACCGUUGACUGUA
hsa-miR-181a-2-3p	ACCACUGACCGUUGACUGUAC
hsa-miR-181a-2-3p	ACCACUGACCGUUGACUGUACC
hsa-miR-181b-5p	AACAUUCAUUGCUGUCGGUGGGU
hsa-miR-182-5p	GGCAAUGGUAGAACUCACACU
hsa-miR-182-5p	UGGCAAUGGUAGAACUCACACU
hsa-miR-182-5p	UUGGCAAUGGUAGAACUCAC
hsa-miR-182-5p	UUGGCAAUGGUAGAACUCACA
hsa-miR-182-5p	UUGGCAAUGGUAGAACUCACAC
hsa-miR-182-5p	UUGGCAAUGGUAGAACUCACACU
hsa-miR-182-5p	UUGGCAAUGGUAGAACUCACACUG
hsa-miR-182-5p	UUUGGCAAUGGUAGAACUCAC
hsa-miR-182-5p	UUUGGCAAUGGUAGAACUCACA
hsa-miR-182-5p	UUUGGCAAUGGUAGAACUCACAC
hsa-miR-182-5p	UUUGGCAAUGGUAGAACUCACACA
hsa-miR-182-5p	UUUGGCAAUGGUAGAACUCACACC
hsa-miR-182-5p	UUUGGCAAUGGUAGAACUCACACU
hsa-miR-182-5p	UUUGGCAAUGGUAGAACUCACACUA
hsa-miR-182-5p	UUUGGCAAUGGUAGAACUCACACUG
hsa-miR-182-5p	UUUGGCAAUGGUAGAACUCACACUU
hsa-miR-183-5p	AUGGCACUGGUAGAAUUCA
hsa-miR-183-5p	AUGGCACUGGUAGAAUUCAC
hsa-miR-183-5p	AUGGCACUGGUAGAAUUCACU
hsa-miR-183-5p	AUGGCACUGGUAGAAUUCACUA
hsa-miR-183-5p	AUGGCACUGGUAGAAUUCACUG
hsa-miR-183-5p	AUGGCACUGGUAGAAUUCACUGA
hsa-miR-183-5p	AUGGCACUGGUAGAAUUCACUGU
hsa-miR-183-5p	GGCACUGGUAGAAUUCACU
hsa-miR-183-5p	UAUGGCACUGGUAGAAUUCA
hsa-miR-183-5p	UAUGGCACUGGUAGAAUUCAC
hsa-miR-183-5p	UAUGGCACUGGUAGAAUUCACA
hsa-miR-183-5p	UAUGGCACUGGUAGAAUUCACU
hsa-miR-183-5p	UAUGGCACUGGUAGAAUUCACUA
hsa-miR-183-5p	UAUGGCACUGGUAGAAUUCACUG
hsa-miR-183-5p	UAUGGCACUGGUAGAAUUCACUGA
hsa-miR-183-5p	UAUGGCACUGGUAGAAUUCACUGU
hsa-miR-183-5p	UAUGGCACUGGUAGAAUUCACUGUG
hsa-miR-183-5p	UGGCACUGGUAGAAUUCACU
hsa-miR-183-5p	UGGCACUGGUAGAAUUCACUG
hsa-miR-183-5p	UGUAUGGCACUGGUAGAAUUCACU
hsa-miR-186-5p	CAAAGAAUUCUCCUUUUGGGC
hsa-miR-186-5p	CAAAGAAUUCUCCUUUUGGGCU
hsa-miR-186-5p	CAAAGAAUUCUCCUUUUGGGCUU
hsa-miR-191-5p	AACGGAAUCCCAAAAGCAGCU
hsa-miR-191-5p	AACGGAAUCCCAAAAGCAGCUG
hsa-miR-191-5p	CAACGGAAUCCCAAAAGCAG
hsa-miR-191-5p	CAACGGAAUCCCAAAAGCAGC
hsa-miR-191-5p	CAACGGAAUCCCAAAAGCAGCU
hsa-miR-191-5p	CAACGGAAUCCCAAAAGCAGCUG
hsa-miR-191-5p	CAACGGAAUCCCAAAAGCAGCUGA
hsa-miR-191-5p	CAACGGAAUCCCAAAAGCAGCUGU
hsa-miR-192-5p	CUGACCUAUGAAUUGACAGC
hsa-miR-192-5p	CUGACCUAUGAAUUGACAGCC
hsa-miR-192-5p	CUGACCUAUGAAUUGACAGCCA
hsa-miR-192-5p	UGACCUAUGAAUUGACAGC
hsa-miR-192-5p	UGACCUAUGAAUUGACAGC
hsa-miR-192-5p	UGACCUAUGAAUUGACAGCCAGA
hsa-miR-192-5p	UGACCUAUGAAUUGACAGCCAGU
hsa-miR-193b-3p	AACUGGCCCUCAAAGUCCCGCU
hsa-miR-196a-5p	AGGUAGUUUCAUGUUGUUGGG
hsa-miR-196a-5p	AGGUAGUUUCAUGUUGUUGGGA
hsa-miR-196a-5p	UAGGUAGUUUCAUGUUGUUGGGA
hsa-miR-197-3p	UUCACCACCUUCUCCACCCAGC
hsa-miR-203a-3p	UGAAAUGUUUAGGACCACUAGA
hsa-miR-20a-5p	UAAAGUGCUUAUAGUGCAGGUA
hsa-miR-20a-5p	UAAAGUGCUUAUAGUGCAGGUAG
hsa-miR-210-3p	CUGUGCGUGUGACAGCGGCUGA
hsa-miR-21-3p	CAACACCAGUCGAUGGGCUGU
hsa-miR-215-5p	AUGACCUAUGAAUUGACAGACA
hsa-miR-21-5p	AGCUUAUCAGACUGAUGUUG
hsa-miR-21-5p	AGCUUAUCAGACUGAUGUUGA
hsa-miR-21-5p	AGCUUAUCAGACUGAUGUUGAC
hsa-miR-21-5p	AGCUUAUCAGACUGAUGUUGACU
hsa-miR-21-5p	CUUAUCAGACUGAUGUUGA
hsa-miR-21-5p	CUUAUCAGACUGAUGUUGAC
hsa-miR-21-5p	CUUAUCAGACUGAUGUUGACU
hsa-miR-21-5p	GCUUAUCAGACUGAUGUUGAC
hsa-miR-21-5p	GCUUAUCAGACUGAUGUUGACU
hsa-miR-21-5p	GUAGCUUAUCAGACUGAUGUUGA
hsa-miR-21-5p	UAGCUUAUCAGACUGAUGUUG
hsa-miR-21-5p	UAGCUUAUCAGACUGAUGUUGA
hsa-miR-21-5p	UAGCUUAUCAGACUGAUGUUGAC
hsa-miR-21-5p	UAGCUUAUCAGACUGAUGUUGACU
hsa-miR-222-3p	AGCUACAUCUGGCUACUGGGUCUC
hsa-miR-224-5p	CAAGUCACUAGUGGUUCCGUUU
hsa-miR-224-5p	CAAGUCACUAGUGGUUCCGUUUAG
hsa-miR-23a-3p	AUCACAUUGCCAGGGAUUUCC
hsa-miR-23a-3p	AUCACAUUGCCAGGGAUUUCCA
hsa-miR-23b-3p	AUCACAUUGCCAGGGAUUACC
hsa-miR-23b-3p	AUCACAUUGCCAGGGAUUACC
hsa-miR-23b-3p	AUCACAUUGCCAGGGAUUACC
hsa-miR-25-3p	AUUGCACUUGUCUCGGUCUG
hsa-miR-25-3p	AUUGCACUUGUCUCGGUCUGA
hsa-miR-25-3p	AUUGCACUUGUCUCGGUCUGAA
hsa-miR-25-3p	AUUGCACUUGUCUCGGUCUGAU
hsa-miR-25-3p	AUUGCACUUGUCUCGGUCUGU
hsa-miR-25-3p	CAUUGCACUUGUCUCGGUCUG
hsa-miR-25-3p	CAUUGCACUUGUCUCGGUCUGA
hsa-miR-25-3p	CAUUGCACUUGUCUCGGUCUGAA
hsa-miR-25-3p	CAUUGCACUUGUCUCGGUCUGU
hsa-miR-25-3p	UGCACUUGUCUCGGUCUGA
hsa-miR-25-3p	UUGCACUUGUCUCGGUCUGA
hsa-miR-25-3p	UUGCACUUGUCUCGGUCUGAA
hsa-miR-26b-5p	UUCAAGUAAUUCAGGAUAGG
hsa-miR-26b-5p	UUCAAGUAAUUCAGGAUAGG
hsa-miR-26b-5p	UUCAAGUAAUUCAGGAUAGGU
hsa-miR-26b-5p	UUCAAGUAAUUCAGGAUAGGUU
hsa-miR-27a-3p	ACAGUGGCUAAGUUCCGC
hsa-miR-27a-3p	UCACAGUGGCUAAGUUCCGC
hsa-miR-27a-3p	UUCACAGUGGCUAAGUUCCG
hsa-miR-27a-3p	UUCACAGUGGCUAAGUUCCGC
hsa-miR-27a-3p	UUCACAGUGGCUAAGUUCCGCU
hsa-miR-27b-3p	ACAGUGGCUAAGUUCUGC
hsa-miR-27b-3p	ACAGUGGCUAAGUUCUGC
hsa-miR-27b-3p	UCACAGUGGCUAAGUUCUGC
hsa-miR-27b-3p	UCACAGUGGCUAAGUUCUGC
hsa-miR-27b-3p	UUCACAGUGGCUAAGUUCUG
hsa-miR-27b-3p	UUCACAGUGGCUAAGUUCUG
hsa-miR-27b-3p	UUCACAGUGGCUAAGUUCUGC
hsa-miR-27b-3p	UUCACAGUGGCUAAGUUCUGC
hsa-miR-27b-3p	UUCACAGUGGCUAAGUUCUGCA
hsa-miR-28-3p	ACUAGAUUGUGAGCUCCUGGA
hsa-miR-28-3p	CACUAGAUUGUGAGCUCCUGG
hsa-miR-28-3p	CACUAGAUUGUGAGCUCCUGGA
hsa-miR-29a-3p	CUAGCACCAUCUGAAAUCGGUU
hsa-miR-29a-3p	UAGCACCAUCUGAAAUCGGUU
hsa-miR-30a-3p	CUUUCAGUCGGAUGUUUGC
hsa-miR-30a-3p	CUUUCAGUCGGAUGUUUGC
hsa-miR-30a-3p	CUUUCAGUCGGAUGUUUGCA
hsa-miR-30a-3p	CUUUCAGUCGGAUGUUUGCAG
hsa-miR-30a-3p	CUUUCAGUCGGAUGUUUGCAGA
hsa-miR-30a-3p	CUUUCAGUCGGAUGUUUGCAGC
hsa-miR-30a-3p	CUUUCAGUCGGAUGUUUGCAGCA
hsa-miR-30a-3p	CUUUCAGUCGGAUGUUUGCAGCU
hsa-miR-30a-3p	CUUUCAGUCGGAUGUUUGCAGU
hsa-miR-30a-3p	UCAGUCGGAUGUUUGCAGC
hsa-miR-30a-3p	UUCAGUCGGAUGUUUGCAGC
hsa-miR-30a-3p	UUUCAGUCGGAUGUUUGC
hsa-miR-30a-3p	UUUCAGUCGGAUGUUUGC
hsa-miR-30a-3p	UUUCAGUCGGAUGUUUGCA
hsa-miR-30a-3p	UUUCAGUCGGAUGUUUGCAG
hsa-miR-30a-3p	UUUCAGUCGGAUGUUUGCAGC
hsa-miR-30a-3p	UUUCAGUCGGAUGUUUGCAGCA
hsa-miR-30a-3p	UUUCAGUCGGAUGUUUGCAGCU
hsa-miR-30a-3p	UUUCAGUCGGAUGUUUGCAGU
hsa-miR-30a-3p	UUUCAGUCGGAUGUUUGCAGUU
hsa-miR-30a-5p	AAACAUCCUCGACUGGAAGA
hsa-miR-30a-5p	AAACAUCCUCGACUGGAAGC
hsa-miR-30a-5p	AAACAUCCUCGACUGGAAGC
hsa-miR-30a-5p	AAACAUCCUCGACUGGAAGCU
hsa-miR-30a-5p	AAACAUCCUCGACUGGAAGCU
hsa-miR-30a-5p	CUGUAAACAUCCUCGACUGGAA
hsa-miR-30a-5p	CUGUAAACAUCCUCGACUGGAAG
hsa-miR-30a-5p	CUGUAAACAUCCUCGACUGGAAGA
hsa-miR-30a-5p	CUGUAAACAUCCUCGACUGGAAGC
hsa-miR-30a-5p	CUGUAAACAUCCUCGACUGGAAGCC
hsa-miR-30a-5p	CUGUAAACAUCCUCGACUGGAAGCU
hsa-miR-30a-5p	CUGUAAACAUCCUCGACUGGAAGU
hsa-miR-30a-5p	GUAAACAUCCUCGACUGG
hsa-miR-30a-5p	GUAAACAUCCUCGACUGG
hsa-miR-30a-5p	GUAAACAUCCUCGACUGGAA
hsa-miR-30a-5p	GUAAACAUCCUCGACUGGAA
hsa-miR-30a-5p	GUAAACAUCCUCGACUGGAAA
hsa-miR-30a-5p	GUAAACAUCCUCGACUGGAAG
hsa-miR-30a-5p	GUAAACAUCCUCGACUGGAAGA
hsa-miR-30a-5p	GUAAACAUCCUCGACUGGAAGC
hsa-miR-30a-5p	GUAAACAUCCUCGACUGGAAGCA
hsa-miR-30a-5p	GUAAACAUCCUCGACUGGAAGCC
hsa-miR-30a-5p	GUAAACAUCCUCGACUGGAAGCU
hsa-miR-30a-5p	GUAAACAUCCUCGACUGGAAGCUU
hsa-miR-30a-5p	GUAAACAUCCUCGACUGGAAGCUUA
hsa-miR-30a-5p	GUAAACAUCCUCGACUGGAAGU
hsa-miR-30a-5p	UAAACAUCCUCGACUGGAAG
hsa-miR-30a-5p	UAAACAUCCUCGACUGGAAGC
hsa-miR-30a-5p	UAAACAUCCUCGACUGGAAGCU
hsa-miR-30a-5p	UGUAAACAUCCUCGACUGG
hsa-miR-30a-5p	UGUAAACAUCCUCGACUGG
hsa-miR-30a-5p	UGUAAACAUCCUCGACUGGA
hsa-miR-30a-5p	UGUAAACAUCCUCGACUGGA
hsa-miR-30a-5p	UGUAAACAUCCUCGACUGGAA
hsa-miR-30a-5p	UGUAAACAUCCUCGACUGGAA
hsa-miR-30a-5p	UGUAAACAUCCUCGACUGGAAA
hsa-miR-30a-5p	UGUAAACAUCCUCGACUGGAAG
hsa-miR-30a-5p	UGUAAACAUCCUCGACUGGAAGA
hsa-miR-30a-5p	UGUAAACAUCCUCGACUGGAAGAA
hsa-miR-30a-5p	UGUAAACAUCCUCGACUGGAAGAC
hsa-miR-30a-5p	UGUAAACAUCCUCGACUGGAAGAU
hsa-miR-30a-5p	UGUAAACAUCCUCGACUGGAAGC
hsa-miR-30a-5p	UGUAAACAUCCUCGACUGGAAGCA
hsa-miR-30a-5p	UGUAAACAUCCUCGACUGGAAGCC
hsa-miR-30a-5p	UGUAAACAUCCUCGACUGGAAGCG
hsa-miR-30a-5p	UGUAAACAUCCUCGACUGGAAGCGU
hsa-miR-30a-5p	UGUAAACAUCCUCGACUGGAAGCU
hsa-miR-30a-5p	UGUAAACAUCCUCGACUGGAAGCUA
hsa-miR-30a-5p	UGUAAACAUCCUCGACUGGAAGCUU
hsa-miR-30a-5p	UGUAAACAUCCUCGACUGGAAGG
hsa-miR-30a-5p	UGUAAACAUCCUCGACUGGAAGGU
hsa-miR-30a-5p	UGUAAACAUCCUCGACUGGAAGU
hsa-miR-30a-5p	UGUAAACAUCCUCGACUGGAAGUA
hsa-miR-30a-5p	UGUAAACAUCCUCGACUGGAAGUU
hsa-miR-30a-5p	UGUAAACAUCCUCGACUGGAAU
hsa-miR-30a-5p	UGUAAACAUCCUCGACUGGACG
hsa-miR-30a-5p	UGUAAACAUCCUCGACUGGCAG
hsa-miR-30c-2-3p	CUGGGAGAAGGCUGUUUACU
hsa-miR-30c-2-3p	CUGGGAGAAGGCUGUUUACUC
hsa-miR-30c-2-3p	CUGGGAGAAGGCUGUUUACUCU
hsa-miR-30c-2-3p	UGGGAGAAGGCUGUUUACUCU
hsa-miR-30d-5p	AAACAUCCCCGACUGGAAGC
hsa-miR-30d-5p	AAACAUCCCCGACUGGAAGCU
hsa-miR-30d-5p	GUAAACAUCCCCGACUGGAAG
hsa-miR-30d-5p	GUAAACAUCCCCGACUGGAAGC
hsa-miR-30d-5p	GUAAACAUCCCCGACUGGAAGCU
hsa-miR-30d-5p	UAAACAUCCCCGACUGGAAGC
hsa-miR-30d-5p	UAAACAUCCCCGACUGGAAGCU
hsa-miR-30d-5p	UGUAAACAUCCCCGACUGGAA
hsa-miR-30d-5p	UGUAAACAUCCCCGACUGGAA
hsa-miR-30d-5p	UGUAAACAUCCCCGACUGGAAA
hsa-miR-30d-5p	UGUAAACAUCCCCGACUGGAAG
hsa-miR-30d-5p	UGUAAACAUCCCCGACUGGAAGA
hsa-miR-30d-5p	UGUAAACAUCCCCGACUGGAAGC
hsa-miR-30d-5p	UGUAAACAUCCCCGACUGGAAGCA
hsa-miR-30d-5p	UGUAAACAUCCCCGACUGGAAGCC
hsa-miR-30d-5p	UGUAAACAUCCCCGACUGGAAGCU
hsa-miR-30d-5p	UGUAAACAUCCCCGACUGGAAGCUU
hsa-miR-30d-5p	UGUAAACAUCCCCGACUGGAAGU
hsa-miR-30d-5p	UGUAAACAUCCCCGACUGGAAU
hsa-miR-30e-3p	CUUUCAGUCGGAUGUUUACA
hsa-miR-30e-3p	CUUUCAGUCGGAUGUUUACA
hsa-miR-30e-3p	CUUUCAGUCGGAUGUUUACAG
hsa-miR-30e-3p	CUUUCAGUCGGAUGUUUACAG
hsa-miR-30e-3p	CUUUCAGUCGGAUGUUUACAGC
hsa-miR-30e-3p	CUUUCAGUCGGAUGUUUACAGC
hsa-miR-30e-3p	UUUCAGUCGGAUGUUUACAGC
hsa-miR-30e-3p	UUUCAGUCGGAUGUUUACAGC
hsa-miR-30e-5p	CUGUAAACAUCCUUGACUGGAAGC
hsa-miR-30e-5p	CUGUAAACAUCCUUGACUGGAAGCU
hsa-miR-30e-5p	GUAAACAUCCUUGACUGGAAGC
hsa-miR-30e-5p	GUAAACAUCCUUGACUGGAAGCU
hsa-miR-30e-5p	UAAACAUCCUUGACUGGAAGCU
hsa-miR-30e-5p	UGUAAACAUCCUUGACUGGAA
hsa-miR-30e-5p	UGUAAACAUCCUUGACUGGAA
hsa-miR-30e-5p	UGUAAACAUCCUUGACUGGAAG
hsa-miR-30e-5p	UGUAAACAUCCUUGACUGGAAG
hsa-miR-30e-5p	UGUAAACAUCCUUGACUGGAAGC
hsa-miR-30e-5p	UGUAAACAUCCUUGACUGGAAGCU
hsa-miR-320a	AAAAGCUGGGUUGAGAGGGCG
hsa-miR-320a	AAAAGCUGGGUUGAGAGGGCG
hsa-miR-320a	AAAAGCUGGGUUGAGAGGGCGA
hsa-miR-320a	AAAAGCUGGGUUGAGAGGGCGA
hsa-miR-320a	AAAAGCUGGGUUGAGAGGGCGAA
hsa-miR-320a	AAAAGCUGGGUUGAGAGGGCGAA
hsa-miR-320a	AAAAGCUGGGUUGAGAGGGCGAAA
hsa-miR-320a	AAAAGCUGGGUUGAGAGGGCGAAA
hsa-miR-320a	AAAAGCUGGGUUGAGAGGGCGAAAA
hsa-miR-320a	AAAAGCUGGGUUGAGAGGGCGAAU
hsa-miR-320a	AAAAGCUGGGUUGAGAGGGCGAGA
hsa-miR-320a	AAAAGCUGGGUUGAGAGGGCGAU
hsa-miR-320a	AAAAGCUGGGUUGAGAGGGCGAUA
hsa-miR-320a	AAAAGCUGGGUUGAGAGGGCGU
hsa-miR-320a	AAAAGCUGGGUUGAGAGGGCGUA
hsa-miR-320a	AAAGCUGGGUUGAGAGGGCGA
hsa-miR-320a	AAAGCUGGGUUGAGAGGGCGA
hsa-miR-320a	AAAGCUGGGUUGAGAGGGCGAA
hsa-miR-320a	AAAGCUGGGUUGAGAGGGCGAA
hsa-miR-320b	AAAAGCUGGGUUGAGAGGG
hsa-miR-320b	AAAAGCUGGGUUGAGAGGG
hsa-miR-320c	AAAAGCUGGGUUGAGAGG
hsa-miR-320c	AAAAGCUGGGUUGAGAGG
hsa-miR-320c	AAAAGCUGGGUUGAGAGG
hsa-miR-320c	AAAAGCUGGGUUGAGAGGG
hsa-miR-320c	AAAAGCUGGGUUGAGAGGG
hsa-miR-320d	AAAAGCUGGGUUGAGA
hsa-miR-320d	AAAAGCUGGGUUGAGA
hsa-miR-320d	AAAAGCUGGGUUGAGA
hsa-miR-320d	AAAAGCUGGGUUGAGAGG
hsa-miR-320d	AAAAGCUGGGUUGAGAGG
hsa-miR-320d	AAAAGCUGGGUUGAGAGG
hsa-miR-330-3p	AAAGCACACGGCCUGCAGAGA
hsa-miR-330-3p	CAAAGCACACGGCCUGCAGAGA
hsa-miR-330-3p	CAAAGCACACGGCCUGCAGAGAG
hsa-miR-330-3p	CAAAGCACACGGCCUGCAGAGAGA
hsa-miR-330-3p	CAAAGCACACGGCCUGCAGAGAGG
hsa-miR-330-3p	CAAAGCACACGGCCUGCAGAGAGU
hsa-miR-330-3p	GCAAAGCACACGGCCUGCAGAGA
hsa-miR-335-3p	UUUUUCAUUAUUGCUCCUGACC
hsa-miR-338-5p	AACAAUAUCCUGGUGCUGAGU
hsa-miR-340-5p	UUAUAAAGCAAUGAGACUGAUU
hsa-miR-3614-5p	CCACUUGGAUCUGAAGGCUGCC
hsa-miR-374a-3p	CUUAUCAGAUUGUAUUGUAAUU
hsa-miR-378a-3p	CACUGGACUUGGAGUCAGAAGGC
hsa-miR-423-3p	AAGCUCGGUCUGAGGCCCCUCAGU
hsa-miR-423-3p	AGCUCGGUCUGAGGCCCCUCAGU
hsa-miR-423-5p	GAGGGGCAGAGAGCGAGACUUU
hsa-miR-423-5p	UGAGGGGCAGAGAGCGAGAC
hsa-miR-423-5p	UGAGGGGCAGAGAGCGAGACU
hsa-miR-423-5p	UGAGGGGCAGAGAGCGAGACUU
hsa-miR-423-5p	UGAGGGGCAGAGAGCGAGACUUU
hsa-miR-423-5p	UGAGGGGCAGAGAGCGAGACUUUU
hsa-miR-425-5p	AAUGACACGAUCACUCCCGUUGA
hsa-miR-452-5p	UGUUUGCAGAGGAAACUGAGAC
hsa-miR-500a-3p	AUGCACCUGGGCAAGGAUUCUGA
hsa-miR-500a-3p	AUGCACCUGGGCAAGGAUUCUGA
hsa-miR-501-3p	AAUGCACCCGGGCAAGGAUUCU
hsa-miR-501-3p	AAUGCACCCGGGCAAGGAUUCU
hsa-miR-501-3p	AAUGCACCCGGGCAAGGAUUCUG
hsa-miR-501-3p	AAUGCACCCGGGCAAGGAUUCUG
hsa-miR-532-5p	CAUGCCUUGAGUGUAGGACC
hsa-miR-532-5p	CAUGCCUUGAGUGUAGGACCG
hsa-miR-532-5p	CAUGCCUUGAGUGUAGGACCGU
hsa-miR-582-3p	UAACUGGUUGAACAACUGAAC
hsa-miR-582-3p	UAACUGGUUGAACAACUGAACC
hsa-miR-582-3p	UAACUGGUUGAACAACUGAACCC
hsa-miR-584-5p	UUAUGGUUUGCCUGGGACUGA
hsa-miR-629-5p	UGGGUUUACGUUGGGAGAACU
hsa-miR-629-5p	UGGGUUUACGUUGGGAGAACUU
hsa-miR-744-5p	UGCGGGGCUAGGGCUAACAGC
hsa-miR-744-5p	UGCGGGGCUAGGGCUAACAGCA
hsa-miR-769-5p	UGAGACCUCUGGGUUCUGAGC
hsa-miR-769-5p	UGAGACCUCUGGGUUCUGAGCU
hsa-miR-7706	UGAAGCGCCUGUGCUCUGCCGAG
hsa-miR-7706	UGAAGCGCCUGUGCUCUGCCGAGA
hsa-miR-92a-3p	AUUGCACUUGUCCCGGCCUG
hsa-miR-92a-3p	AUUGCACUUGUCCCGGCCUGUU
hsa-miR-92a-3p	UAUUGCACUUGUCCCGGCCUGUAGU
hsa-miR-92a-3p	UAUUGCACUUGUCCCGGCCUGUU
hsa-miR-92b-3p	AUUGCACUCGUCCCGGCCUC
hsa-miR-92b-3p	AUUGCACUCGUCCCGGCCUCC
hsa-miR-92b-3p	UAUUGCACUCGUCCCGGCC
hsa-miR-92b-3p	UAUUGCACUCGUCCCGGCC
hsa-miR-92b-3p	UAUUGCACUCGUCCCGGCCU
hsa-miR-92b-3p	UAUUGCACUCGUCCCGGCCU
hsa-miR-92b-3p	UAUUGCACUCGUCCCGGCCUC
hsa-miR-92b-3p	UAUUGCACUCGUCCCGGCCUCC
hsa-miR-93-5p	CAAAGUGCUGUUCGUGCAGGU
hsa-miR-93-5p	CAAAGUGCUGUUCGUGCAGGUAG
hsa-miR-941	CACCCGGCUGUGUGCACAUGUGC
hsa-miR-95-3p	UUCAACGGGUAUUUAUUGAGC
hsa-miR-96-5p	UUUGGCACUAGCACAUUUUUGCU
hsa-miR-98-5p	UGAGGUAGUAAGUUGUAUUGUU
hsa-miR-99a-5p	AACCCGUAGAUCCGAUCUUGU
hsa-miR-99a-5p	AACCCGUAGAUCCGAUCUUGU
hsa-miR-99a-5p	AACCCGUAGAUCCGAUCUUGUG
hsa-miR-99a-5p	AACCCGUAGAUCCGAUCUUGUG
hsa-miR-99b-5p	ACCCGUAGAACCGACCUUGC
hsa-miR-99b-5p	ACCCGUAGAACCGACCUUGCG
hsa-miR-99b-5p	CACCCGUAGAACCGACCUUG
hsa-miR-99b-5p	CACCCGUAGAACCGACCUUGC
hsa-miR-99b-5p	CACCCGUAGAACCGACCUUGCG
hsa-miR-99b-5p	CCACCCGUAGAACCGACCUUGCG
hsa-miR-99b-5p	CCCGUAGAACCGACCUUGCG
hsa-miR-99b-5p	CCGUAGAACCGACCUUGC
hsa-miR-99b-5p	CCGUAGAACCGACCUUGCG
